; Engine configuration file.
; It's best edited using the editor UI and not directly,
; since the parameters that go here are not all obvious.
;
; Format:
;   [section] ; section goes between []
;   param=value ; assign values to parameters

config_version=4

_global_script_classes=[ {
"base": "RigidBody2D",
"class": "CBaseObjectRigidBody2D",
"language": "GDScript",
"path": "res://Scripts/BaseObjectScripts/BaseObjectRigidBody2D.gd"
}, {
"base": "Node2D",
"class": "CDebris",
"language": "GDScript",
"path": "res://Scripts/DebrisScript.gd"
}, {
"base": "Node",
"class": "CDebrisGenerator",
"language": "GDScript",
"path": "res://Scripts/DebrisGeneratorScript.gd"
}, {
"base": "CBaseObjectRigidBody2D",
"class": "CDebrisRigidBody2D",
"language": "GDScript",
"path": "res://Scripts/BaseObjectScripts/DebrisRigidBody2D.gd"
}, {
"base": "RigidBody2D",
"class": "CDrone",
"language": "GDScript",
"path": "res://Scripts/Drone_script.gd"
}, {
"base": "Node2D",
"class": "CExplosive",
"language": "GDScript",
"path": "res://Scripts/ExplosiveScript.gd"
}, {
"base": "CBaseObjectRigidBody2D",
"class": "CExplosiveRigidBody2D",
"language": "GDScript",
"path": "res://Scripts/BaseObjectScripts/ExplosiveRigidBody2D.gd"
}, {
"base": "Node",
"class": "CGlobal",
"language": "GDScript",
"path": "res://Scripts/GlobalLoader.gd"
}, {
"base": "Control",
"class": "CHUD",
"language": "GDScript",
"path": "res://Scripts/HUDScript.gd"
}, {
"base": "Node",
"class": "CLevelCotroller",
"language": "GDScript",
"path": "res://Scripts/LevelControllerScript.gd"
}, {
"base": "Node2D",
"class": "CSmallAsteroid",
"language": "GDScript",
"path": "res://Scripts/SmallAsteroidScript.gd"
}, {
"base": "Control",
"class": "CTask",
"language": "GDScript",
"path": "res://Scripts/TaskScript.gd"
}, {
"base": "Node2D",
"class": "CTransmutator",
"language": "GDScript",
"path": "res://Scripts/Transmutator_Script.gd"
}, {
"base": "CBaseObjectRigidBody2D",
"class": "CTransmutatorRigidBody2D",
"language": "GDScript",
"path": "res://Scripts/BaseObjectScripts/TransmutatorRigidBody2D.gd"
}, {
"base": "Control",
"class": "CTutorial",
"language": "GDScript",
"path": "res://Scripts/Tutorial/TutorialScript.gd"
} ]
_global_script_class_icons={
"CBaseObjectRigidBody2D": "",
"CDebris": "",
"CDebrisGenerator": "",
"CDebrisRigidBody2D": "",
"CDrone": "",
"CExplosive": "",
"CExplosiveRigidBody2D": "",
"CGlobal": "",
"CHUD": "",
"CLevelCotroller": "",
"CSmallAsteroid": "",
"CTask": "",
"CTransmutator": "",
"CTransmutatorRigidBody2D": "",
"CTutorial": ""
}

[application]

config/name="Drones"
run/main_scene="res://Interfaces/MainMenu.tscn"
config/icon="res://icon.png"

[autoload]

GlobalLoader="*res://Scripts/GlobalLoader.gd"
GlobalDataTypes="*res://Scripts/GlobalDataTypes.gd"

[display]

window/stretch/mode="2d"
window/stretch/aspect="expand"

[physics]

common/enable_pause_aware_picking=true
2d/default_gravity=0
2d/default_gravity_vector=Vector2( 0, 0 )

[rendering]

quality/driver/driver_name="GLES2"
vram_compression/import_etc=true
vram_compression/import_etc2=false
environment/default_environment="res://default_env.tres"
